Module 16 Dataframe wrangling | The Datatrain R Bootcamp
…
filter()

The filter() function is used to subset a dataframe, retaining all rows that satisfy your conditions. To be retained, the row must produce a value of TRUE for all conditions.

gapminder %>% filter(continent == 'Europe')
#> # A tibble: 360 × 6
#>   country continent  year lifeExp     pop gdpPercap
#>   <fct>   <fct>     <int>   <dbl>   <int>     <dbl>
#> 1 Albania Europe     1952    55.2 1282697     1601.
#> 2 Albania Europe     1957    59.3 1476505     1942.
#> 3 Albania Europe     1962    64.8 1728137     2313.
#> 4 Albania Europe     1967    66.2 1984060     2760.
#> 5 Albania Europe     1972    67.7 2263554     3313.
#> 6 Albania Europe     1977    68.9 2509048     3533.
#> # … with 354 more rows

gapminder %>% filter(lifeExp >= 70)
#> # A tibble: 494 × 6
#>   country continent  year lifeExp     pop gdpPercap
#>   <fct>   <fct>     <int>   <dbl>   <int>     <dbl>
#> 1 Albania Europe     1982    70.4 2780097     3631.
#> 2 Albania Europe     1987    72   3075321     3739.
#> 3 Albania Europe     1992    71.6 3326498     2497.
#> 4 Albania Europe     1997    73.0 3428038     3193.
#> 5 Albania Europe     2002    75.7 3508512     4604.
#> 6 Albania Europe     2007    76.4 3600523     5937.
#> # … with 488 more rows

You can also filter according to multiple conditions. Here are three ways to acheive the same thing:

gapminder %>% filter(lifeExp >= 70 & year == 2007)
#> # A tibble: 83 × 6
#>   country   continent  year lifeExp      pop gdpPercap
#>   <fct>     <fct>     <int>   <dbl>    <int>     <dbl>
#> 1 Albania   Europe     2007    76.4  3600523     5937.
#> 2 Algeria   Africa     2007    72.3 33333216     6223.
#> 3 Argentina Americas   2007    75.3 40301927    12779.
#> 4 Australia Oceania    2007    81.2 20434176    34435.
#> 5 Austria   Europe     2007    79.8  8199783    36126.
#> 6 Bahrain   Asia       2007    75.6   708573    29796.
#> # … with 77 more rows

gapminder %>% filter(lifeExp >= 70, year == 2007)
#> # A tibble: 83 × 6
#>   country   continent  year lifeExp      pop gdpPercap
#>   <fct>     <fct>     <int>   <dbl>    <int>     <dbl>
#> 1 Albania   Europe     2007    76.4  3600523     5937.
#> 2 Algeria   Africa     2007    72.3 33333216     6223.
#> 3 Argentina Americas   2007    75.3 40301927    12779.
#> 4 Australia Oceania    2007    81.2 20434176    34435.
#> 5 Austria   Europe     2007    79.8  8199783    36126.
#> 6 Bahrain   Asia       2007    75.6   708573    29796.
#> # … with 77 more rows

gapminder %>% filter(lifeExp >= 70) %>% filter(year == 2007)
#> # A tibble: 83 × 6
#>   country   continent  year lifeExp      pop gdpPercap
#>   <fct>     <fct>     <int>   <dbl>    <int>     <dbl>
#> 1 Albania   Europe     2007    76.4  3600523     5937.
#> 2 Algeria   Africa     2007    72.3 33333216     6223.
#> 3 Argentina Americas   2007    75.3 40301927    12779.
#> 4 Australia Oceania    2007    81.2 20434176    34435.
#> 5 Austria   Europe     2007    79.8  8199783    36126.
#> 6 Bahrain   Asia       2007    75.6   708573    29796.
#> # … with 77 more rows

Note that when a condition evaluates to NA, its row will be dropped.

arrange()

To arrange means to put things in order — arrange() orders the rows of a data frame by the values of selected columns.

gapminder %>% arrange(lifeExp)
#> # A tibble: 1,704 × 6
#>   country      continent  year lifeExp     pop gdpPercap
#>   <fct>        <fct>     <int>   <dbl>   <int>     <dbl>
#> 1 Rwanda       Africa     1992    23.6 7290203      737.
#> 2 Afghanistan  Asia       1952    28.8 8425333      779.
#> 3 Gambia       Africa     1952    30    284320      485.
#> 4 Angola       Africa     1952    30.0 4232095     3521.
#> 5 Sierra Leone Africa     1952    30.3 2143249      880.
#> 6 Afghanistan  Asia       1957    30.3 9240934      821.
#> # … with 1,698 more rows

gapminder %>% arrange(gdpPercap)
#> # A tibble: 1,704 × 6
#>   country          continent  year lifeExp      pop gdpPercap
#>   <fct>            <fct>     <int>   <dbl>    <int>     <dbl>
#> 1 Congo, Dem. Rep. Africa     2002    45.0 55379852      241.
#> 2 Congo, Dem. Rep. Africa     2007    46.5 64606759      278.
#> 3 Lesotho          Africa     1952    42.1   748747      299.
#> 4 Guinea-Bissau    Africa     1952    32.5   580653      300.
#> 5 Congo, Dem. Rep. Africa     1997    42.6 47798986      312.
#> 6 Eritrea          Africa     1952    35.9  1438760      329.
#> # … with 1,698 more rows

gapminder %>% arrange(continent)
#> # A tibble: 1,704 × 6
#>   country continent  year lifeExp      pop gdpPercap
#>   <fct>   <fct>     <int>   <dbl>    <int>     <dbl>
#> 1 Algeria Africa     1952    43.1  9279525     2449.
#> 2 Algeria Africa     1957    45.7 10270856     3014.
#> 3 Algeria Africa     1962    48.3 11000948     2551.
#> 4 Algeria Africa     1967    51.4 12760499     3247.
#> 5 Algeria Africa     1972    54.5 14760787     4183.
#> 6 Algeria Africa     1977    58.0 17152804     4910.
#> # … with 1,698 more rows

To reverse the order, use desc():

gapminder %>% arrange(desc(pop))
#> # A tibble: 1,704 × 6
#>   country continent  year lifeExp        pop gdpPercap
#>   <fct>   <fct>     <int>   <dbl>      <int>     <dbl>
#> 1 China   Asia       2007    73.0 1318683096     4959.
#> 2 China   Asia       2002    72.0 1280400000     3119.
#> 3 China   Asia       1997    70.4 1230075000     2289.
#> 4 China   Asia       1992    68.7 1164970000     1656.
#> 5 India   Asia       2007    64.7 1110396331     2452.
#> 6 China   Asia       1987    67.3 1084035000     1379.
#> # … with 1,698 more rows

You can also arrange by multiple levels:

gapminder %>% arrange(continent, gdpPercap)
#> # A tibble: 1,704 × 6
#>   country          continent  year lifeExp      pop gdpPercap
#>   <fct>            <fct>     <int>   <dbl>    <int>     <dbl>
#> 1 Congo, Dem. Rep. Africa     2002    45.0 55379852      241.
#> 2 Congo, Dem. Rep. Africa     2007    46.5 64606759      278.
#> 3 Lesotho          Africa     1952    42.1   748747      299.
#> 4 Guinea-Bissau    Africa     1952    32.5   580653      300.
#> 5 Congo, Dem. Rep. Africa     1997    42.6 47798986      312.
#> 6 Eritrea          Africa     1952    35.9  1438760      329.
#> # … with 1,698 more rows

You can even use arrange() and filter() together:

gapminder %>% filter( year == 2007) %>% arrange(continent, gdpPercap)
#> # A tibble: 142 × 6
#>   country          continent  year lifeExp      pop gdpPercap
#>   <fct>            <fct>     <int>   <dbl>    <int>     <dbl>
#> 1 Congo, Dem. Rep. Africa     2007    46.5 64606759      278.
#> 2 Liberia          Africa     2007    45.7  3193942      415.
#> 3 Burundi          Africa     2007    49.6  8390505      430.
#> 4 Zimbabwe         Africa     2007    43.5 12311143      470.
#> 5 Guinea-Bissau    Africa     2007    46.4  1472041      579.
#> 6 Niger            Africa     2007    56.9 12894865      620.
#> # … with 136 more rows

select()

Use select() to extract only certain variables (i.e., columns) from a data frame, making the dataframe skinnier (fewer columns).

gapminder %>% select(country, year, pop)
#> # A tibble: 1,704 × 3
#>   country      year      pop
#>   <fct>       <int>    <int>
#> 1 Afghanistan  1952  8425333
#> 2 Afghanistan  1957  9240934
#> 3 Afghanistan  1962 10267083
#> 4 Afghanistan  1967 11537966
#> 5 Afghanistan  1972 13079460
#> 6 Afghanistan  1977 14880372
#> # … with 1,698 more rows

As you select columns, you can rename them like so:

gapminder %>% select(country, year, population = pop)
#> # A tibble: 1,704 × 3
#>   country      year population
#>   <fct>       <int>      <int>
#> 1 Afghanistan  1952    8425333
#> 2 Afghanistan  1957    9240934
#> 3 Afghanistan  1962   10267083
#> 4 Afghanistan  1967   11537966
#> 5 Afghanistan  1972   13079460
#> 6 Afghanistan  1977   14880372
#> # … with 1,698 more rows

You can also select a set of columns using the : notation:

gapminder %>% select(country:lifeExp)
#> # A tibble: 1,704 × 4
#>   country     continent  year lifeExp
#>   <fct>       <fct>     <int>   <dbl>
#> 1 Afghanistan Asia       1952    28.8
#> 2 Afghanistan Asia       1957    30.3
#> 3 Afghanistan Asia       1962    32.0
#> 4 Afghanistan Asia       1967    34.0
#> 5 Afghanistan Asia       1972    36.1
#> 6 Afghanistan Asia       1977    38.4
#> # … with 1,698 more rows

rename()

The function rename() changes the names of individual variables — just remember that this verb uses the syntax <new_name> = <old_name>!

gapminder %>% rename(population = pop)
#> # A tibble: 1,704 × 6
#>   country     continent  year lifeExp population gdpPercap
#>   <fct>       <fct>     <int>   <dbl>      <int>     <dbl>
#> 1 Afghanistan Asia       1952    28.8    8425333      779.
#> 2 Afghanistan Asia       1957    30.3    9240934      821.
#> 3 Afghanistan Asia       1962    32.0   10267083      853.
#> 4 Afghanistan Asia       1967    34.0   11537966      836.
#> 5 Afghanistan Asia       1972    36.1   13079460      740.
#> 6 Afghanistan Asia       1977    38.4   14880372      786.
#> # … with 1,698 more rows

mutate()

The function mutate() adds new variables (i.e., columns) and preserves existing ones.
New variables overwrite existing variables of the same name.

gapminder %>% mutate( GDP = pop*gdpPercap)
#> # A tibble: 1,704 × 7
#>   country     continent  year lifeExp      pop gdpPercap          GDP
#>   <fct>       <fct>     <int>   <dbl>    <int>     <dbl>        <dbl>
#> 1 Afghanistan Asia       1952    28.8  8425333      779.  6567086330.
#> 2 Afghanistan Asia       1957    30.3  9240934      821.  7585448670.
#> 3 Afghanistan Asia       1962    32.0 10267083      853.  8758855797.
#> 4 Afghanistan Asia       1967    34.0 11537966      836.  9648014150.
#> 5 Afghanistan Asia       1972    36.1 13079460      740.  9678553274.
#> 6 Afghanistan Asia       1977    38.4 14880372      786. 11697659231.
#> # … with 1,698 more rows

gapminder %>% mutate(average_lifeExp = mean( lifeExp ) ) 
#> # A tibble: 1,704 × 7
#>   country     continent  year lifeExp      pop gdpPercap average_lifeExp
#>   <fct>       <fct>     <int>   <dbl>    <int>     <dbl>           <dbl>
#> 1 Afghanistan Asia       1952    28.8  8425333      779.            59.5
#> 2 Afghanistan Asia       1957    30.3  9240934      821.            59.5
#> 3 Afghanistan Asia       1962    32.0 10267083      853.            59.5
#> 4 Afghanistan Asia       1967    34.0 11537966      836.            59.5
#> 5 Afghanistan Asia       1972    36.1 13079460      740.            59.5
#> 6 Afghanistan Asia       1977    38.4 14880372      786.            59.5
#> # … with 1,698 more rows

gapminder %>% mutate(low_lifeExp = lifeExp < mean( lifeExp ) )
#> # A tibble: 1,704 × 7
#>   country     continent  year lifeExp      pop gdpPercap low_lifeExp
#>   <fct>       <fct>     <int>   <dbl>    <int>     <dbl> <lgl>      
#> 1 Afghanistan Asia       1952    28.8  8425333      779. TRUE       
#> 2 Afghanistan Asia       1957    30.3  9240934      821. TRUE       
#> 3 Afghanistan Asia       1962    32.0 10267083      853. TRUE       
#> 4 Afghanistan Asia       1967    34.0 11537966      836. TRUE       
#> 5 Afghanistan Asia       1972    36.1 13079460      740. TRUE       
#> 6 Afghanistan Asia       1977    38.4 14880372      786. TRUE       
#> # … with 1,698 more rows

You can call mutate() multiple times in the same pipe:

gapminder %>% 
  mutate(average_lifeExp = mean( lifeExp ) ) %>%
   mutate(low_lifeExp = lifeExp < average_lifeExp )
#> # A tibble: 1,704 × 8
#>   country     continent  year lifeExp      pop gdpPercap average_lifeExp low_l…¹
#>   <fct>       <fct>     <int>   <dbl>    <int>     <dbl>           <dbl> <lgl>  
#> 1 Afghanistan Asia       1952    28.8  8425333      779.            59.5 TRUE   
#> 2 Afghanistan Asia       1957    30.3  9240934      821.            59.5 TRUE   
#> 3 Afghanistan Asia       1962    32.0 10267083      853.            59.5 TRUE   
#> 4 Afghanistan Asia       1967    34.0 11537966      836.            59.5 TRUE   
#> 5 Afghanistan Asia       1972    36.1 13079460      740.            59.5 TRUE   
#> 6 Afghanistan Asia       1977    38.4 14880372      786.            59.5 TRUE   
#> # … with 1,698 more rows, and abbreviated variable name ¹​low_lifeExp

You can also remove variables by setting their value to NULL.

gapminder %>% mutate(gdpPercap = NULL)
#> # A tibble: 1,704 × 5
#>   country     continent  year lifeExp      pop
#>   <fct>       <fct>     <int>   <dbl>    <int>
#> 1 Afghanistan Asia       1952    28.8  8425333
#> 2 Afghanistan Asia       1957    30.3  9240934
#> 3 Afghanistan Asia       1962    32.0 10267083
#> 4 Afghanistan Asia       1967    34.0 11537966
#> 5 Afghanistan Asia       1972    36.1 13079460
#> 6 Afghanistan Asia       1977    38.4 14880372
#> # … with 1,698 more rows

A similar function, transmute(), adds new variables and drops existing ones, kind of like a combination of select() and mutate().

gapminder %>% transmute(GDP = pop*gdpPercap )
#> # A tibble: 1,704 × 1
#>            GDP
#>          <dbl>
#> 1  6567086330.
#> 2  7585448670.
#> 3  8758855797.
#> 4  9648014150.
#> 5  9678553274.
#> 6 11697659231.
#> # … with 1,698 more rows

group_by()

Most data operations are done on groups defined by variables. The function group_by() takes an existing table and converts it into a grouped one where operations are performed “by group”.

gapminder %>%
  filter( year == 2007 ) %>%
  group_by( continent ) %>%
  mutate( average_lifeExp = mean( lifeExp ))
#> # A tibble: 142 × 7
#> # Groups:   continent [5]
#>   country     continent  year lifeExp      pop gdpPercap average_lifeExp
#>   <fct>       <fct>     <int>   <dbl>    <int>     <dbl>           <dbl>
#> 1 Afghanistan Asia       2007    43.8 31889923      975.            70.7
#> 2 Albania     Europe     2007    76.4  3600523     5937.            77.6
#> 3 Algeria     Africa     2007    72.3 33333216     6223.            54.8
#> 4 Angola      Africa     2007    42.7 12420476     4797.            54.8
#> 5 Argentina   Americas   2007    75.3 40301927    12779.            73.6
#> 6 Australia   Oceania    2007    81.2 20434176    34435.            80.7
#> # … with 136 more rows

gapminder %>%
  filter( year == 2007 ) %>%
  group_by( continent ) %>%
  mutate( average_lifeExp = mean( lifeExp )) %>%
  mutate( low_lifeExp = lifeExp < average_lifeExp )
#> # A tibble: 142 × 8
#> # Groups:   continent [5]
#>   country     continent  year lifeExp      pop gdpPercap average_lifeExp low_l…¹
#>   <fct>       <fct>     <int>   <dbl>    <int>     <dbl>           <dbl> <lgl>  
#> 1 Afghanistan Asia       2007    43.8 31889923      975.            70.7 TRUE   
#> 2 Albania     Europe     2007    76.4  3600523     5937.            77.6 TRUE   
#> 3 Algeria     Africa     2007    72.3 33333216     6223.            54.8 FALSE  
#> 4 Angola      Africa     2007    42.7 12420476     4797.            54.8 TRUE   
#> 5 Argentina   Americas   2007    75.3 40301927    12779.            73.6 FALSE  
#> 6 Australia   Oceania    2007    81.2 20434176    34435.            80.7 FALSE  
#> # … with 136 more rows, and abbreviated variable name ¹​low_lifeExp
…
